\relax 
\providecommand\hyper@newdestlabel[2]{}
\providecommand\babel@aux[2]{}
\@nameuse{bbl@beforestart}
\providecommand\HyperFirstAtBeginDocument{\AtBeginDocument}
\HyperFirstAtBeginDocument{\ifx\hyper@anchor\@undefined
\global\let\oldcontentsline\contentsline
\gdef\contentsline#1#2#3#4{\oldcontentsline{#1}{#2}{#3}}
\global\let\oldnewlabel\newlabel
\gdef\newlabel#1#2{\newlabelxx{#1}#2}
\gdef\newlabelxx#1#2#3#4#5#6{\oldnewlabel{#1}{{#2}{#3}}}
\AtEndDocument{\ifx\hyper@anchor\@undefined
\let\contentsline\oldcontentsline
\let\newlabel\oldnewlabel
\fi}
\fi}
\global\let\hyper@last\relax 
\gdef\HyperFirstAtBeginDocument#1{#1}
\providecommand\HyField@AuxAddToFields[1]{}
\providecommand\HyField@AuxAddToCoFields[2]{}
\babel@aux{italian}{}
\babel@aux{italian}{}
\@writefile{toc}{\contentsline {section}{\numberline {1}Application Overview}{3}{section.1}\protected@file@percent }
\@writefile{toc}{\contentsline {subsection}{\numberline {1.1}Introduzione}{3}{subsection.1.1}\protected@file@percent }
\@writefile{toc}{\contentsline {subsection}{\numberline {1.2}Descrizione dell'applicazione}{3}{subsection.1.2}\protected@file@percent }
\@writefile{toc}{\contentsline {section}{\numberline {2}Workflow}{4}{section.2}\protected@file@percent }
\@writefile{toc}{\contentsline {section}{\numberline {3}Background Study}{5}{section.3}\protected@file@percent }
\@writefile{toc}{\contentsline {subsection}{\numberline {3.1}Soluzioni attualmente presenti sul mercato}{5}{subsection.3.1}\protected@file@percent }
\@writefile{toc}{\contentsline {subsection}{\numberline {3.2}Vantaggio competitivo}{5}{subsection.3.2}\protected@file@percent }
\@writefile{toc}{\contentsline {section}{\numberline {4}Stakeholders List}{6}{section.4}\protected@file@percent }
\@writefile{toc}{\contentsline {section}{\numberline {5}Survey and Interview}{7}{section.5}\protected@file@percent }
\@writefile{toc}{\contentsline {subsection}{\numberline {5.1}Players}{7}{subsection.5.1}\protected@file@percent }
\@writefile{toc}{\contentsline {subsubsection}{\numberline {5.1.1}Common Questions}{7}{subsubsection.5.1.1}\protected@file@percent }
\@writefile{toc}{\contentsline {subsubsection}{\numberline {5.1.2}Main Questions}{8}{subsubsection.5.1.2}\protected@file@percent }
\@writefile{toc}{\contentsline {subsection}{\numberline {5.2}Tennis Trainer}{10}{subsection.5.2}\protected@file@percent }
\@writefile{toc}{\contentsline {subsection}{\numberline {5.3}Tennis Court Owners}{11}{subsection.5.3}\protected@file@percent }
\@writefile{toc}{\contentsline {subsection}{\numberline {5.4}Marketing And Sales}{12}{subsection.5.4}\protected@file@percent }
\@writefile{toc}{\contentsline {subsection}{\numberline {5.5}Developers}{13}{subsection.5.5}\protected@file@percent }
\@writefile{lof}{\contentsline {figure}{\numberline {1}{\ignorespaces Schema di organizzazione del lavoro\relax }}{14}{figure.caption.2}\protected@file@percent }
\providecommand*\caption@xref[2]{\@setref\relax\@undefined{#1}}
\newlabel{fig:Schema}{{1}{14}{Schema di organizzazione del lavoro\relax }{figure.caption.2}{}}
\gdef \@abspage@last{14}
