PWD /Users/simonedimauro/Documents/Repo/2020_assignment2_tenniscoach/Survey/Players
INPUT /usr/local/texlive/2020/texmf.cnf
INPUT /usr/local/texlive/2020/texmf-dist/web2c/texmf.cnf
INPUT /usr/local/texlive/2020/texmf-var/web2c/pdftex/pdflatex.fmt
INPUT /Users/simonedimauro/Documents/Repo/2020_assignment2_tenniscoach/Survey/Players/players.tex
OUTPUT /Users/simonedimauro/Documents/Repo/2020_assignment2_tenniscoach/Survey/Players/players.log
INPUT /usr/local/texlive/2020/texmf-dist/tex/latex/subfiles/subfiles.cls
INPUT /usr/local/texlive/2020/texmf-dist/tex/latex/subfiles/subfiles.cls
INPUT /usr/local/texlive/2020/texmf-dist/tex/latex/tools/verbatim.sty
INPUT /usr/local/texlive/2020/texmf-dist/tex/latex/tools/verbatim.sty
INPUT /usr/local/texlive/2020/texmf-dist/tex/latex/import/import.sty
INPUT /usr/local/texlive/2020/texmf-dist/tex/latex/import/import.sty
