# Fdb version 3
["pdflatex"] 1606684055 "/Users/simonedimauro/Documents/Repo/2020_assignment2_tenniscoach/Survey/Developers/developers.tex" "/Users/simonedimauro/Documents/Repo/2020_assignment2_tenniscoach/Survey/Developers/developers.pdf" "developers" 1606684055
  "/Users/simonedimauro/Documents/Repo/2020_assignment2_tenniscoach/Survey/Developers/developers.aux" 1606684055 8 a94a2480d3289e625eea47cd1b285758 ""
  "/Users/simonedimauro/Documents/Repo/2020_assignment2_tenniscoach/Survey/Developers/developers.tex" 1606684054 1183 0f1d1dcff0d1546b242b9f4372737752 ""
  "/Users/simonedimauro/Documents/Repo/2020_assignment2_tenniscoach/Survey/Developers/import.sty" 0 -1 0 ""
  "/usr/local/texlive/2020/texmf-dist/tex/latex/import/import.sty" 1583875238 5460 c7f8be03f906fafe6ceb02fde5d1728a ""
  "/usr/local/texlive/2020/texmf-dist/tex/latex/subfiles/subfiles.cls" 1581719676 1944 ec59d18066264d0d1103a79b7bc94486 ""
  "/usr/local/texlive/2020/texmf-dist/tex/latex/tools/verbatim.sty" 1580683321 7308 a7fb09b68a4a07a482e876fbe2959b04 ""
  "/usr/local/texlive/2020/texmf-dist/web2c/texmf.cnf" 1583102494 39451 60d7debd9ef8ece44cbe965493576c2d ""
  "/usr/local/texlive/2020/texmf-var/web2c/pdftex/pdflatex.fmt" 1605193133 2432458 5bc932c2780b41afead6ec0d6d174617 ""
  "/usr/local/texlive/2020/texmf.cnf" 1586288231 577 d60164b4589a341208aff7a667fbbdcb ""
  "developers.tex" 1606684054 1183 0f1d1dcff0d1546b242b9f4372737752 ""
  "import.sty" 0 -1 0 ""
  (generated)
  "/Users/simonedimauro/Documents/Repo/2020_assignment2_tenniscoach/Survey/Developers/developers.pdf"
  "developers.log"
  "/Users/simonedimauro/Documents/Repo/2020_assignment2_tenniscoach/Survey/Developers/developers.log"
